case num,agent,map,path cost,final simulation,sum simulation,non_deceptive length
1,agent_drl,pacman_o, 36.000, 0.1760,1738.44,0.892
2,agent_drl,pacman_o, 32.000, 0.1735,1714.47,0.758
3,agent_drl,pacman_m, 12.000, 0.3860,3853.95,0.385
4,agent_drl,pacman_m, 13.000, 0.3650,3643.45,0.357
5,agent_drl,pacman_t, 11.000, 0.4550,4544.25,0.750
6,agent_drl,pacman_t, 13.000, 0.3640,3633.25,0.500
7,agent_drl,pacman_p, 20.000, 0.3000,2989.59,0.571
8,agent_drl,pacman_p, 19.000, 0.4005,3995.46,0.250
9,agent_drl,pacman_c, 11.000, 0.3440,3434.27,0.583
10,agent_drl,pacman_c, 15.000, 0.5000,4992.50,0.000
