map,start,optcost,density,distribution,formula,goal0,costdif,probability,goal1,costdif,probability,goal2,costdif,probability,goal3,costdif,probability,goal4,costdif,probability,goal5,costdif,probability
pacman_o,"(15, 24)",36.0,D_10,P,3,"(12, 1)", 795.586,0.27,"(4, 5)", 796.172,0.25,"(24, 17)", 796.758,0.24,"(25, 8)", 796.758,0.24,,,,,,
pacman_o,"(15, 24)",36.0,D_20,P,3,"(12, 1)", 791.586,0.28,"(4, 5)", 800.172,0.12,"(24, 17)", 790.758,0.30,"(25, 8)", 790.758,0.30,,,,,,
pacman_o,"(15, 24)",36.0,D_30,P,3,"(12, 1)", 794.172,0.17,"(4, 5)", 802.758,0.07,"(24, 17)", 787.344,0.34,"(25, 8)", 785.344,0.41,,,,,,
pacman_o,"(15, 24)",36.0,D_40,P,3,"(12, 1)", 787.172,0.23,"(4, 5)", 795.758,0.10,"(24, 17)", 794.344,0.11,"(25, 8)", 778.344,0.56,,,,,,
pacman_o,"(15, 24)",36.0,D_50,P,3,"(12, 1)", 781.758,0.36,"(4, 5)", 790.344,0.15,"(24, 17)", 798.344,0.07,"(25, 8)", 780.344,0.42,,,,,,
pacman_o,"(15, 24)",36.0,D_60,P,3,"(12, 1)", 775.758,0.54,"(4, 5)", 784.344,0.23,"(24, 17)", 803.758,0.03,"(25, 8)", 785.758,0.20,,,,,,
pacman_o,"(15, 24)",36.0,D_70,P,3,"(12, 1)", 770.758,0.61,"(4, 5)", 777.344,0.31,"(24, 17)", 810.758,0.01,"(25, 8)", 792.758,0.07,,,,,,
pacman_o,"(15, 24)",36.0,D_80,P,3,"(12, 1)", 776.758,0.35,"(4, 5)", 771.344,0.60,"(24, 17)", 816.758,0.01,"(25, 8)", 798.758,0.04,,,,,,
pacman_o,"(15, 24)",36.0,D_90,P,3,"(12, 1)", 772.758,0.53,"(4, 5)", 775.344,0.41,"(24, 17)", 812.758,0.01,"(25, 8)", 794.758,0.06,,,,,,
pacman_o,"(24, 17)",32.0,D_10,P,3,"(4, 5)", 797.000,0.28,"(15, 24)", 797.586,0.27,"(12, 1)", 797.000,0.28,"(25, 8)", 802.414,0.17,,,,,,
pacman_o,"(24, 17)",32.0,D_20,P,3,"(4, 5)", 793.000,0.35,"(15, 24)", 800.172,0.17,"(12, 1)", 793.000,0.35,"(25, 8)", 802.414,0.14,,,,,,
pacman_o,"(24, 17)",32.0,D_30,P,3,"(4, 5)", 789.000,0.40,"(15, 24)", 804.172,0.09,"(12, 1)", 789.000,0.40,"(25, 8)", 802.414,0.10,,,,,,
pacman_o,"(24, 17)",32.0,D_40,P,3,"(4, 5)", 785.586,0.43,"(15, 24)", 807.586,0.05,"(12, 1)", 785.586,0.43,"(25, 8)", 801.828,0.09,,,,,,
pacman_o,"(24, 17)",32.0,D_50,P,3,"(4, 5)", 781.586,0.45,"(15, 24)", 811.586,0.02,"(12, 1)", 781.586,0.45,"(25, 8)", 800.414,0.07,,,,,,
pacman_o,"(24, 17)",32.0,D_60,P,3,"(4, 5)", 777.586,0.48,"(15, 24)", 815.586,0.01,"(12, 1)", 777.586,0.48,"(25, 8)", 804.414,0.03,,,,,,
pacman_o,"(24, 17)",32.0,D_70,P,3,"(4, 5)", 779.586,0.34,"(15, 24)", 819.586,0.01,"(12, 1)", 773.586,0.63,"(25, 8)", 808.414,0.02,,,,,,
pacman_o,"(24, 17)",32.0,D_80,P,3,"(4, 5)", 777.586,0.44,"(15, 24)", 821.586,0.01,"(12, 1)", 775.586,0.54,"(25, 8)", 812.414,0.01,,,,,,
pacman_o,"(24, 17)",32.0,D_90,P,3,"(4, 5)", 773.586,0.63,"(15, 24)", 817.586,0.01,"(12, 1)", 779.586,0.35,"(25, 8)", 814.414,0.01,,,,,,
pacman_m,"(8, 9)",12.0,D_10,P,3,"(12, 3)", 800.000,0.25,"(6, 4)", 800.000,0.25,"(9, 4)", 800.000,0.25,"(16, 7)", 800.000,0.25,,,,,,
pacman_m,"(8, 9)",12.0,D_20,P,3,"(12, 3)", 799.000,0.26,"(6, 4)", 799.000,0.26,"(9, 4)", 799.000,0.26,"(16, 7)", 800.172,0.23,,,,,,
pacman_m,"(8, 9)",12.0,D_30,P,3,"(12, 3)", 798.586,0.25,"(6, 4)", 798.586,0.25,"(9, 4)", 798.586,0.25,"(16, 7)", 799.172,0.24,,,,,,
pacman_m,"(8, 9)",12.0,D_40,P,3,"(12, 3)", 796.586,0.28,"(6, 4)", 796.586,0.28,"(9, 4)", 796.586,0.28,"(16, 7)", 801.172,0.17,,,,,,
pacman_m,"(8, 9)",12.0,D_50,P,3,"(12, 3)", 795.586,0.29,"(6, 4)", 796.172,0.27,"(9, 4)", 795.586,0.29,"(16, 7)", 801.586,0.16,,,,,,
pacman_m,"(8, 9)",12.0,D_60,P,3,"(12, 3)", 794.586,0.30,"(6, 4)", 797.172,0.23,"(9, 4)", 794.586,0.30,"(16, 7)", 800.586,0.17,,,,,,
pacman_m,"(8, 9)",12.0,D_70,P,3,"(12, 3)", 792.586,0.33,"(6, 4)", 799.172,0.17,"(9, 4)", 792.586,0.33,"(16, 7)", 800.000,0.16,,,,,,
pacman_m,"(8, 9)",12.0,D_80,P,3,"(12, 3)", 792.172,0.35,"(6, 4)", 799.586,0.17,"(9, 4)", 793.586,0.31,"(16, 7)", 799.586,0.17,,,,,,
pacman_m,"(8, 9)",12.0,D_90,P,3,"(12, 3)", 791.172,0.39,"(6, 4)", 799.172,0.17,"(9, 4)", 794.000,0.29,"(16, 7)", 800.586,0.15,,,,,,
pacman_m,"(16, 7)",13.0,D_10,P,3,"(6, 4)", 798.000,0.25,"(8, 9)", 798.000,0.25,"(12, 3)", 798.000,0.25,"(9, 4)", 798.000,0.25,,,,,,
pacman_m,"(16, 7)",13.0,D_20,P,3,"(6, 4)", 795.000,0.30,"(8, 9)", 796.172,0.26,"(12, 3)", 798.414,0.21,"(9, 4)", 797.586,0.23,,,,,,
pacman_m,"(16, 7)",13.0,D_30,P,3,"(6, 4)", 792.000,0.35,"(8, 9)", 793.172,0.31,"(12, 3)", 801.414,0.14,"(9, 4)", 797.172,0.21,,,,,,
pacman_m,"(16, 7)",13.0,D_40,P,3,"(6, 4)", 793.000,0.33,"(8, 9)", 792.172,0.35,"(12, 3)", 802.414,0.13,"(9, 4)", 798.172,0.19,,,,,,
pacman_m,"(16, 7)",13.0,D_50,P,3,"(6, 4)", 789.586,0.40,"(8, 9)", 795.000,0.23,"(12, 3)", 799.828,0.14,"(9, 4)", 795.586,0.22,,,,,,
pacman_m,"(16, 7)",13.0,D_60,P,3,"(6, 4)", 790.586,0.35,"(8, 9)", 796.586,0.19,"(12, 3)", 797.414,0.18,"(9, 4)", 793.172,0.27,,,,,,
pacman_m,"(16, 7)",13.0,D_70,P,3,"(6, 4)", 793.000,0.29,"(8, 9)", 799.000,0.16,"(12, 3)", 795.000,0.24,"(9, 4)", 792.172,0.32,,,,,,
pacman_m,"(16, 7)",13.0,D_80,P,3,"(6, 4)", 794.586,0.27,"(8, 9)", 802.000,0.13,"(12, 3)", 792.000,0.34,"(9, 4)", 794.586,0.27,,,,,,
pacman_m,"(16, 7)",13.0,D_90,P,3,"(6, 4)", 791.586,0.32,"(8, 9)", 799.586,0.14,"(12, 3)", 795.000,0.23,"(9, 4)", 792.172,0.30,,,,,,
pacman_t,"(8, 11)",11.0,D_10,P,3,"(11, 5)", 799.000,0.26,"(6, 3)", 799.000,0.26,"(3, 6)", 799.000,0.26,"(13, 3)", 801.000,0.21,,,,,,
pacman_t,"(8, 11)",11.0,D_20,P,3,"(11, 5)", 797.000,0.27,"(6, 3)", 797.586,0.26,"(3, 6)", 797.586,0.26,"(13, 3)", 799.586,0.21,,,,,,
pacman_t,"(8, 11)",11.0,D_30,P,3,"(11, 5)", 797.000,0.25,"(6, 3)", 795.586,0.28,"(3, 6)", 796.172,0.27,"(13, 3)", 799.000,0.20,,,,,,
pacman_t,"(8, 11)",11.0,D_40,P,3,"(11, 5)", 795.000,0.25,"(6, 3)", 793.586,0.29,"(3, 6)", 795.344,0.24,"(13, 3)", 797.000,0.21,,,,,,
pacman_t,"(8, 11)",11.0,D_50,P,3,"(11, 5)", 795.414,0.22,"(6, 3)", 790.586,0.36,"(3, 6)", 797.758,0.18,"(13, 3)", 794.586,0.24,,,,,,
pacman_t,"(8, 11)",11.0,D_60,P,3,"(11, 5)", 793.414,0.27,"(6, 3)", 792.586,0.29,"(3, 6)", 799.758,0.14,"(13, 3)", 792.586,0.29,,,,,,
pacman_t,"(8, 11)",11.0,D_70,P,3,"(11, 5)", 792.000,0.30,"(6, 3)", 794.586,0.23,"(3, 6)", 801.172,0.12,"(13, 3)", 790.586,0.35,,,,,,
pacman_t,"(8, 11)",11.0,D_80,P,3,"(11, 5)", 794.000,0.26,"(6, 3)", 796.586,0.20,"(3, 6)", 803.172,0.10,"(13, 3)", 788.586,0.44,,,,,,
pacman_t,"(8, 11)",11.0,D_90,P,3,"(11, 5)", 792.000,0.31,"(6, 3)", 798.586,0.16,"(3, 6)", 803.758,0.10,"(13, 3)", 788.586,0.43,,,,,,
pacman_t,"(3, 6)",13.0,D_10,P,3,"(13, 3)", 800.000,0.25,"(8, 11)", 800.000,0.25,"(11, 5)", 800.000,0.25,"(6, 3)", 800.000,0.25,,,,,,
pacman_t,"(3, 6)",13.0,D_20,P,3,"(13, 3)", 799.000,0.25,"(8, 11)", 799.586,0.24,"(11, 5)", 799.000,0.25,"(6, 3)", 799.000,0.25,,,,,,
pacman_t,"(3, 6)",13.0,D_30,P,3,"(13, 3)", 797.586,0.26,"(8, 11)", 798.758,0.23,"(11, 5)", 797.586,0.26,"(6, 3)", 797.586,0.26,,,,,,
pacman_t,"(3, 6)",13.0,D_40,P,3,"(13, 3)", 796.586,0.27,"(8, 11)", 799.758,0.20,"(11, 5)", 796.586,0.27,"(6, 3)", 796.586,0.27,,,,,,
pacman_t,"(3, 6)",13.0,D_50,P,3,"(13, 3)", 794.586,0.32,"(8, 11)", 801.758,0.15,"(11, 5)", 794.586,0.32,"(6, 3)", 798.586,0.21,,,,,,
pacman_t,"(3, 6)",13.0,D_60,P,3,"(13, 3)", 793.586,0.34,"(8, 11)", 802.758,0.14,"(11, 5)", 793.586,0.34,"(6, 3)", 799.586,0.19,,,,,,
pacman_t,"(3, 6)",13.0,D_70,P,3,"(13, 3)", 793.172,0.34,"(8, 11)", 803.758,0.12,"(11, 5)", 792.586,0.36,"(6, 3)", 800.000,0.17,,,,,,
pacman_t,"(3, 6)",13.0,D_80,P,3,"(13, 3)", 791.172,0.40,"(8, 11)", 803.758,0.11,"(11, 5)", 792.586,0.35,"(6, 3)", 802.000,0.14,,,,,,
pacman_t,"(3, 6)",13.0,D_90,P,3,"(13, 3)", 790.172,0.44,"(8, 11)", 802.758,0.12,"(11, 5)", 793.586,0.31,"(6, 3)", 803.000,0.12,,,,,,
pacman_p,"(5, 2)",20.0,D_10,P,3,"(22, 5)", 799.586,0.25,"(3, 5)", 799.000,0.26,"(18, 3)", 799.586,0.25,"(12, 7)", 799.586,0.25,,,,,,
pacman_p,"(5, 2)",20.0,D_20,P,3,"(22, 5)", 797.758,0.27,"(3, 5)", 799.172,0.23,"(18, 3)", 799.414,0.23,"(12, 7)", 797.758,0.27,,,,,,
pacman_p,"(5, 2)",20.0,D_30,P,3,"(22, 5)", 795.758,0.29,"(3, 5)", 801.172,0.17,"(18, 3)", 797.414,0.25,"(12, 7)", 795.758,0.29,,,,,,
pacman_p,"(5, 2)",20.0,D_40,P,3,"(22, 5)", 792.758,0.32,"(3, 5)", 804.172,0.10,"(18, 3)", 794.414,0.27,"(12, 7)", 793.344,0.30,,,,,,
pacman_p,"(5, 2)",20.0,D_50,P,3,"(22, 5)", 792.172,0.33,"(3, 5)", 805.586,0.09,"(18, 3)", 793.000,0.30,"(12, 7)", 793.930,0.28,,,,,,
pacman_p,"(5, 2)",20.0,D_60,P,3,"(22, 5)", 790.586,0.36,"(3, 5)", 808.000,0.06,"(18, 3)", 790.586,0.36,"(12, 7)", 795.758,0.21,,,,,,
pacman_p,"(5, 2)",20.0,D_70,P,3,"(22, 5)", 788.586,0.39,"(3, 5)", 810.000,0.05,"(18, 3)", 788.586,0.39,"(12, 7)", 796.586,0.17,,,,,,
pacman_p,"(5, 2)",20.0,D_80,P,3,"(22, 5)", 786.172,0.45,"(3, 5)", 811.586,0.04,"(18, 3)", 787.586,0.39,"(12, 7)", 798.172,0.13,,,,,,
pacman_p,"(5, 2)",20.0,D_90,P,3,"(22, 5)", 784.758,0.51,"(3, 5)", 812.172,0.03,"(18, 3)", 789.000,0.33,"(12, 7)", 798.758,0.12,,,,,,
pacman_p,"(22, 5)",19.0,D_10,P,3,"(3, 5)", 799.000,0.25,"(5, 2)", 799.000,0.25,"(18, 3)", 799.000,0.25,"(12, 7)", 799.000,0.25,,,,,,
pacman_p,"(22, 5)",19.0,D_20,P,3,"(3, 5)", 796.000,0.26,"(5, 2)", 796.000,0.26,"(18, 3)", 797.172,0.23,"(12, 7)", 796.000,0.26,,,,,,
pacman_p,"(22, 5)",19.0,D_30,P,3,"(3, 5)", 794.000,0.27,"(5, 2)", 794.000,0.27,"(18, 3)", 798.000,0.18,"(12, 7)", 794.000,0.27,,,,,,
pacman_p,"(22, 5)",19.0,D_40,P,3,"(3, 5)", 791.000,0.30,"(5, 2)", 791.000,0.30,"(18, 3)", 801.000,0.11,"(12, 7)", 791.586,0.28,,,,,,
pacman_p,"(22, 5)",19.0,D_50,P,3,"(3, 5)", 788.000,0.35,"(5, 2)", 788.000,0.35,"(18, 3)", 804.000,0.07,"(12, 7)", 792.000,0.23,,,,,,
pacman_p,"(22, 5)",19.0,D_60,P,3,"(3, 5)", 786.000,0.39,"(5, 2)", 786.000,0.39,"(18, 3)", 806.000,0.05,"(12, 7)", 794.000,0.17,,,,,,
pacman_p,"(22, 5)",19.0,D_70,P,3,"(3, 5)", 783.000,0.46,"(5, 2)", 784.758,0.39,"(18, 3)", 809.000,0.03,"(12, 7)", 797.000,0.11,,,,,,
pacman_p,"(22, 5)",19.0,D_80,P,3,"(3, 5)", 783.828,0.41,"(5, 2)", 782.758,0.46,"(18, 3)", 808.172,0.04,"(12, 7)", 797.828,0.10,,,,,,
pacman_p,"(22, 5)",19.0,D_90,P,3,"(3, 5)", 784.000,0.44,"(5, 2)", 783.758,0.45,"(18, 3)", 810.586,0.03,"(12, 7)", 800.242,0.09,,,,,,
pacman_c,"(9, 7)",11.0,D_10,P,3,"(12, 1)", 798.000,0.30,"(2, 5)", 800.000,0.25,"(17, 5)", 802.000,0.20,"(4, 3)", 800.000,0.25,,,,,,
pacman_c,"(9, 7)",11.0,D_20,P,3,"(12, 1)", 795.000,0.34,"(2, 5)", 801.000,0.19,"(17, 5)", 801.000,0.19,"(4, 3)", 797.000,0.28,,,,,,
pacman_c,"(9, 7)",11.0,D_30,P,3,"(12, 1)", 797.000,0.25,"(2, 5)", 797.000,0.25,"(17, 5)", 803.000,0.14,"(4, 3)", 793.000,0.37,,,,,,
pacman_c,"(9, 7)",11.0,D_40,P,3,"(12, 1)", 796.000,0.28,"(2, 5)", 798.000,0.23,"(17, 5)", 802.000,0.15,"(4, 3)", 794.000,0.34,,,,,,
pacman_c,"(9, 7)",11.0,D_50,P,3,"(12, 1)", 794.586,0.34,"(2, 5)", 802.000,0.16,"(17, 5)", 798.000,0.24,"(4, 3)", 798.000,0.24,,,,,,
pacman_c,"(9, 7)",11.0,D_60,P,3,"(12, 1)", 793.586,0.38,"(2, 5)", 805.000,0.12,"(17, 5)", 795.000,0.33,"(4, 3)", 801.000,0.18,,,,,,
pacman_c,"(9, 7)",11.0,D_70,P,3,"(12, 1)", 796.586,0.30,"(2, 5)", 808.000,0.10,"(17, 5)", 792.000,0.47,"(4, 3)", 804.000,0.14,,,,,,
pacman_c,"(9, 7)",11.0,D_80,P,3,"(12, 1)", 796.586,0.30,"(2, 5)", 808.000,0.10,"(17, 5)", 792.000,0.47,"(4, 3)", 804.000,0.14,,,,,,
pacman_c,"(9, 7)",11.0,D_90,P,3,"(12, 1)", 793.586,0.38,"(2, 5)", 805.000,0.12,"(17, 5)", 795.000,0.33,"(4, 3)", 801.000,0.18,,,,,,
pacman_c,"(17, 5)",15.0,D_10,P,3,"(4, 3)", 800.000,0.25,"(9, 7)", 800.000,0.25,"(12, 1)", 800.000,0.25,"(2, 5)", 800.000,0.25,,,,,,
pacman_c,"(17, 5)",15.0,D_20,P,3,"(4, 3)", 798.000,0.26,"(9, 7)", 800.000,0.21,"(12, 1)", 798.000,0.26,"(2, 5)", 798.000,0.26,,,,,,
pacman_c,"(17, 5)",15.0,D_30,P,3,"(4, 3)", 797.000,0.27,"(9, 7)", 801.000,0.18,"(12, 1)", 797.000,0.27,"(2, 5)", 797.000,0.27,,,,,,
pacman_c,"(17, 5)",15.0,D_40,P,3,"(4, 3)", 795.000,0.27,"(9, 7)", 799.000,0.18,"(12, 1)", 795.000,0.27,"(2, 5)", 795.000,0.27,,,,,,
pacman_c,"(17, 5)",15.0,D_50,P,3,"(4, 3)", 793.000,0.30,"(9, 7)", 799.000,0.16,"(12, 1)", 795.000,0.24,"(2, 5)", 793.000,0.30,,,,,,
pacman_c,"(17, 5)",15.0,D_60,P,3,"(4, 3)", 792.000,0.31,"(9, 7)", 798.000,0.17,"(12, 1)", 796.000,0.21,"(2, 5)", 792.000,0.31,,,,,,
pacman_c,"(17, 5)",15.0,D_70,P,3,"(4, 3)", 790.000,0.32,"(9, 7)", 796.000,0.17,"(12, 1)", 795.414,0.19,"(2, 5)", 790.000,0.32,,,,,,
pacman_c,"(17, 5)",15.0,D_80,P,3,"(4, 3)", 789.000,0.34,"(9, 7)", 797.000,0.15,"(12, 1)", 796.414,0.16,"(2, 5)", 789.000,0.34,,,,,,
pacman_c,"(17, 5)",15.0,D_90,P,3,"(4, 3)", 787.000,0.37,"(9, 7)", 797.000,0.14,"(12, 1)", 798.414,0.12,"(2, 5)", 787.000,0.37,,,,,,
